^C:\USERS\LKGTT\DESKTOP\CS-250\LABS\PART 3 - QUEUES\STL_QUEUE.CPP
C:\USERS\LKGTT\DESKTOP\CS-250\LABS\STL\QUEUE\QUEUE\DEBUG\VC141.PDB
C:\USERS\LKGTT\DESKTOP\CS-250\LABS\STL\QUEUE\QUEUE\DEBUG\VC141.IDB
C:\USERS\LKGTT\DESKTOP\CS-250\LABS\STL\QUEUE\QUEUE\DEBUG\STL_QUEUE.OBJ
