^C:\USERS\LKGTT\DESKTOP\CS-250\LABS\LAB-DEBUGGING-TOOLS\MAIN.CPP
C:\USERS\LKGTT\DESKTOP\CS-250\LABS\LAB-DEBUGGING-TOOLS\DEBUG\DEBUG\DEBUG\VC141.PDB
C:\USERS\LKGTT\DESKTOP\CS-250\LABS\LAB-DEBUGGING-TOOLS\DEBUG\DEBUG\DEBUG\VC141.IDB
C:\USERS\LKGTT\DESKTOP\CS-250\LABS\LAB-DEBUGGING-TOOLS\DEBUG\DEBUG\DEBUG\MAIN.OBJ
