^C:\USERS\LKGTT\DESKTOP\CS-250\LABS\PROJECT1-LINEAR-STRUCTURES\TESTER.CPP
/c /ZI /nologo /W3 /WX- /diagnostics:classic /sdl /Od /Oy- /D _MBCS /Gm /EHsc /RTC1 /MDd /GS /fp:precise /Zc:wchar_t /Zc:forScope /Zc:inline /Fo"DEBUG\\" /Fd"DEBUG\VC141.PDB" /Gd /TP /analyze- C:\USERS\LKGTT\DESKTOP\CS-250\LABS\PROJECT1-LINEAR-STRUCTURES\TESTER.CPP
^C:\USERS\LKGTT\DESKTOP\CS-250\LABS\PROJECT1-LINEAR-STRUCTURES\TESTER_PROGRAM.CPP
/c /ZI /nologo /W3 /WX- /diagnostics:classic /sdl /Od /Oy- /D _MBCS /Gm /EHsc /RTC1 /MDd /GS /fp:precise /Zc:wchar_t /Zc:forScope /Zc:inline /Fo"DEBUG\\" /Fd"DEBUG\VC141.PDB" /Gd /TP /analyze- C:\USERS\LKGTT\DESKTOP\CS-250\LABS\PROJECT1-LINEAR-STRUCTURES\TESTER_PROGRAM.CPP
